8-bit RISC-V processor/cpu_wavedata.vcd
$date
	Wed Jun 14 10:33:03 2023
$end
$version
	Icarus Verilog
$end
$timescale
	1s
$end
$scope module cpu_tb $end
$var wire 32 ! PC [31:0] $end
$var wire 32 " INSTRUCTION [31:0] $end
$var reg 1 # CLK $end
$var reg 1 $ RESET $end
$var integer 32 % i [31:0] $end
$scope module mycpu $end
$var wire 1 # CLK $end
$var wire 32 & INSTRUCTION [31:0] $end
$var wire 1 $ RESET $end
$var wire 1 ' write_mem $end
$var wire 1 ( reg_write $end
$var wire 8 ) readdata [7:0] $end
$var wire 1 * read_mem $end
$var wire 8 + out_reg_mux [7:0] $end
$var wire 32 , offset_addddress [31:0] $end
$var wire 1 - busywait $end
$var wire 1 . ZERO $end
$var wire 1 / WRITE $end
$var wire 3 0 SOURCE2 [2:0] $end
$var wire 3 1 SOURCE1 [2:0] $end
$var wire 8 2 RESULT [7:0] $end
$var wire 8 3 OUT_MUX2 [7:0] $end
$var wire 8 4 OUT_MUX1 [7:0] $end
$var wire 8 5 OUT_COM [7:0] $end
$var wire 8 6 OUT2 [7:0] $end
$var wire 8 7 OUT1 [7:0] $end
$var wire 1 8 MUX2 $end
$var wire 1 9 MUX1 $end
$var wire 1 : JUMP $end
$var wire 8 ; IMMEDIATE [7:0] $end
$var wire 3 < DESTINATION [2:0] $end
$var wire 2 = BRANCH [1:0] $end
$var wire 3 > ALUOP [2:0] $end
$var reg 32 ? PC [31:0] $end
$var reg 32 @ branch_address [31:0] $end
$var reg 32 A offset_address_multiple_4 [31:0] $end
$var reg 1 B pc_case $end
$scope module alu $end
$var wire 16 C multiplier [15:0] $end
$var wire 16 D multiplicand [15:0] $end
$var wire 1 . ZERO $end
$var wire 3 E SELECT [2:0] $end
$var wire 8 F R_SHIFT [7:0] $end
$var wire 8 G L_SHIFT [7:0] $end
$var wire 8 H DATA2 [7:0] $end
$var wire 8 I DATA1 [7:0] $end
$var reg 8 J ADD [7:0] $end
$var reg 8 K AND [7:0] $end
$var reg 8 L OR [7:0] $end
$var reg 8 M RESULT [7:0] $end
$var reg 8 N arithmetic_shift [7:0] $end
$var reg 16 O product [15:0] $end
$var integer 32 P i [31:0] $end
$scope module FA_1 $end
$var wire 4 Q A [3:0] $end
$var wire 4 R B [3:0] $end
$var wire 4 S S [3:0] $end
$scope module fa $end
$var wire 1 T a $end
$var wire 1 U b $end
$var wire 1 V ci $end
$var wire 1 W wire_1 $end
$var wire 1 X wire_2 $end
$var wire 1 Y wire_3 $end
$var reg 1 Z co $end
$var reg 1 [ sum $end
$upscope $end
$scope module fb $end
$var wire 1 \ a $end
$var wire 1 ] b $end
$var wire 1 Z ci $end
$var wire 1 ^ wire_1 $end
$var wire 1 _ wire_2 $end
$var wire 1 ` wire_3 $end
$var reg 1 a co $end
$var reg 1 b sum $end
$upscope $end
$scope module fc $end
$var wire 1 c a $end
$var wire 1 d b $end
$var wire 1 a ci $end
$var wire 1 e wire_1 $end
$var wire 1 f wire_2 $end
$var wire 1 g wire_3 $end
$var reg 1 h co $end
$var reg 1 i sum $end
$upscope $end
$scope module fd $end
$var wire 1 j a $end
$var wire 1 k b $end
$var wire 1 h ci $end
$var wire 1 l wire_1 $end
$var wire 1 m wire_2 $end
$var wire 1 n wire_3 $end
$var reg 1 o co $end
$var reg 1 p sum $end
$upscope $end
$upscope $end
$scope module FA_2 $end
$var wire 4 q A [3:0] $end
$var wire 4 r B [3:0] $end
$var wire 4 s S [3:0] $end
$scope module fa $end
$var wire 1 t a $end
$var wire 1 u b $end
$var wire 1 v ci $end
$var wire 1 w wire_1 $end
$var wire 1 x wire_2 $end
$var wire 1 y wire_3 $end
$var reg 1 z co $end
$var reg 1 { sum $end
$upscope $end
$scope module fb $end
$var wire 1 | a $end
$var wire 1 } b $end
$var wire 1 z ci $end
$var wire 1 ~ wire_1 $end
$var wire 1 !" wire_2 $end
$var wire 1 "" wire_3 $end
$var reg 1 #" co $end
$var reg 1 $" sum $end
$upscope $end
$scope module fc $end
$var wire 1 %" a $end
$var wire 1 &" b $end
$var wire 1 #" ci $end
$var wire 1 '" wire_1 $end
$var wire 1 (" wire_2 $end
$var wire 1 )" wire_3 $end
$var reg 1 *" co $end
$var reg 1 +" sum $end
$upscope $end
$scope module fd $end
$var wire 1 ," a $end
$var wire 1 -" b $end
$var wire 1 *" ci $end
$var wire 1 ." wire_1 $end
$var wire 1 /" wire_2 $end
$var wire 1 0" wire_3 $end
$var reg 1 1" co $end
$var reg 1 2" sum $end
$upscope $end
$upscope $end
$scope module FA_3 $end
$var wire 4 3" A [3:0] $end
$var wire 4 4" B [3:0] $end
$var wire 4 5" S [3:0] $end
$scope module fa $end
$var wire 1 6" a $end
$var wire 1 7" b $end
$var wire 1 8" ci $end
$var wire 1 9" wire_1 $end
$var wire 1 :" wire_2 $end
$var wire 1 ;" wire_3 $end
$var reg 1 <" co $end
$var reg 1 =" sum $end
$upscope $end
$scope module fb $end
$var wire 1 >" a $end
$var wire 1 ?" b $end
$var wire 1 <" ci $end
$var wire 1 @" wire_1 $end
$var wire 1 A" wire_2 $end
$var wire 1 B" wire_3 $end
$var reg 1 C" co $end
$var reg 1 D" sum $end
$upscope $end
$scope module fc $end
$var wire 1 E" a $end
$var wire 1 F" b $end
$var wire 1 C" ci $end
$var wire 1 G" wire_1 $end
$var wire 1 H" wire_2 $end
$var wire 1 I" wire_3 $end
$var reg 1 J" co $end
$var reg 1 K" sum $end
$upscope $end
$scope module fd $end
$var wire 1 L" a $end
$var wire 1 M" b $end
$var wire 1 J" ci $end
$var wire 1 N" wire_1 $end
$var wire 1 O" wire_2 $end
$var wire 1 P" wire_3 $end
$var reg 1 Q" co $end
$var reg 1 R" sum $end
$upscope $end
$upscope $end
$scope module FA_4 $end
$var wire 4 S" A [3:0] $end
$var wire 4 T" B [3:0] $end
$var wire 4 U" S [3:0] $end
$scope module fa $end
$var wire 1 V" a $end
$var wire 1 W" b $end
$var wire 1 X" ci $end
$var wire 1 Y" wire_1 $end
$var wire 1 Z" wire_2 $end
$var wire 1 [" wire_3 $end
$var reg 1 \" co $end
$var reg 1 ]" sum $end
$upscope $end
$scope module fb $end
$var wire 1 ^" a $end
$var wire 1 _" b $end
$var wire 1 \" ci $end
$var wire 1 `" wire_1 $end
$var wire 1 a" wire_2 $end
$var wire 1 b" wire_3 $end
$var reg 1 c" co $end
$var reg 1 d" sum $end
$upscope $end
$scope module fc $end
$var wire 1 e" a $end
$var wire 1 f" b $end
$var wire 1 c" ci $end
$var wire 1 g" wire_1 $end
$var wire 1 h" wire_2 $end
$var wire 1 i" wire_3 $end
$var reg 1 j" co $end
$var reg 1 k" sum $end
$upscope $end
$scope module fd $end
$var wire 1 l" a $end
$var wire 1 m" b $end
$var wire 1 j" ci $end
$var wire 1 n" wire_1 $end
$var wire 1 o" wire_2 $end
$var wire 1 p" wire_3 $end
$var reg 1 q" co $end
$var reg 1 r" sum $end
$upscope $end
$upscope $end
$scope module FA_5 $end
$var wire 4 s" A [3:0] $end
$var wire 4 t" B [3:0] $end
$var wire 4 u" S [3:0] $end
$scope module fa $end
$var wire 1 v" a $end
$var wire 1 w" b $end
$var wire 1 x" ci $end
$var wire 1 y" wire_1 $end
$var wire 1 z" wire_2 $end
$var wire 1 {" wire_3 $end
$var reg 1 |" co $end
$var reg 1 }" sum $end
$upscope $end
$scope module fb $end
$var wire 1 ~" a $end
$var wire 1 !# b $end
$var wire 1 |" ci $end
$var wire 1 "# wire_1 $end
$var wire 1 ## wire_2 $end
$var wire 1 $# wire_3 $end
$var reg 1 %# co $end
$var reg 1 &# sum $end
$upscope $end
$scope module fc $end
$var wire 1 '# a $end
$var wire 1 (# b $end
$var wire 1 %# ci $end
$var wire 1 )# wire_1 $end
$var wire 1 *# wire_2 $end
$var wire 1 +# wire_3 $end
$var reg 1 ,# co $end
$var reg 1 -# sum $end
$upscope $end
$scope module fd $end
$var wire 1 .# a $end
$var wire 1 /# b $end
$var wire 1 ,# ci $end
$var wire 1 0# wire_1 $end
$var wire 1 1# wire_2 $end
$var wire 1 2# wire_3 $end
$var reg 1 3# co $end
$var reg 1 4# sum $end
$upscope $end
$upscope $end
$scope module FA_6 $end
$var wire 4 5# A [3:0] $end
$var wire 4 6# B [3:0] $end
$var wire 4 7# S [3:0] $end
$scope module fa $end
$var wire 1 8# a $end
$var wire 1 9# b $end
$var wire 1 :# ci $end
$var wire 1 ;# wire_1 $end
$var wire 1 <# wire_2 $end
$var wire 1 =# wire_3 $end
$var reg 1 ># co $end
$var reg 1 ?# sum $end
$upscope $end
$scope module fb $end
$var wire 1 @# a $end
$var wire 1 A# b $end
$var wire 1 ># ci $end
$var wire 1 B# wire_1 $end
$var wire 1 C# wire_2 $end
$var wire 1 D# wire_3 $end
$var reg 1 E# co $end
$var reg 1 F# sum $end
$upscope $end
$scope module fc $end
$var wire 1 G# a $end
$var wire 1 H# b $end
$var wire 1 E# ci $end
$var wire 1 I# wire_1 $end
$var wire 1 J# wire_2 $end
$var wire 1 K# wire_3 $end
$var reg 1 L# co $end
$var reg 1 M# sum $end
$upscope $end
$scope module fd $end
$var wire 1 N# a $end
$var wire 1 O# b $end
$var wire 1 L# ci $end
$var wire 1 P# wire_1 $end
$var wire 1 Q# wire_2 $end
$var wire 1 R# wire_3 $end
$var reg 1 S# co $end
$var reg 1 T# sum $end
$upscope $end
$upscope $end
$scope module FA_7 $end
$var wire 4 U# A [3:0] $end
$var wire 4 V# B [3:0] $end
$var wire 4 W# S [3:0] $end
$scope module fa $end
$var wire 1 X# a $end
$var wire 1 Y# b $end
$var wire 1 Z# ci $end
$var wire 1 [# wire_1 $end
$var wire 1 \# wire_2 $end
$var wire 1 ]# wire_3 $end
$var reg 1 ^# co $end
$var reg 1 _# sum $end
$upscope $end
$scope module fb $end
$var wire 1 `# a $end
$var wire 1 a# b $end
$var wire 1 ^# ci $end
$var wire 1 b# wire_1 $end
$var wire 1 c# wire_2 $end
$var wire 1 d# wire_3 $end
$var reg 1 e# co $end
$var reg 1 f# sum $end
$upscope $end
$scope module fc $end
$var wire 1 g# a $end
$var wire 1 h# b $end
$var wire 1 e# ci $end
$var wire 1 i# wire_1 $end
$var wire 1 j# wire_2 $end
$var wire 1 k# wire_3 $end
$var reg 1 l# co $end
$var reg 1 m# sum $end
$upscope $end
$scope module fd $end
$var wire 1 n# a $end
$var wire 1 o# b $end
$var wire 1 l# ci $end
$var wire 1 p# wire_1 $end
$var wire 1 q# wire_2 $end
$var wire 1 r# wire_3 $end
$var reg 1 s# co $end
$var reg 1 t# sum $end
$upscope $end
$upscope $end
$scope module mux_1 $end
$var wire 1 u# IN0 $end
$var wire 1 v# IN1 $end
$var wire 1 w# IN2 $end
$var wire 1 x# IN3 $end
$var wire 1 y# IN4 $end
$var wire 1 z# IN5 $end
$var wire 1 {# IN6 $end
$var wire 1 |# IN7 $end
$var wire 4 }# control [3:0] $end
$var reg 1 ~# bit_shift $end
$upscope $end
$scope module mux_2 $end
$var wire 1 !$ IN0 $end
$var wire 1 "$ IN1 $end
$var wire 1 #$ IN2 $end
$var wire 1 $$ IN3 $end
$var wire 1 %$ IN4 $end
$var wire 1 &$ IN5 $end
$var wire 1 '$ IN6 $end
$var wire 1 ($ IN7 $end
$var wire 4 )$ control [3:0] $end
$var reg 1 *$ bit_shift $end
$upscope $end
$scope module mux_3 $end
$var wire 1 +$ IN0 $end
$var wire 1 ,$ IN1 $end
$var wire 1 -$ IN2 $end
$var wire 1 .$ IN3 $end
$var wire 1 /$ IN4 $end
$var wire 1 0$ IN5 $end
$var wire 1 1$ IN6 $end
$var wire 1 2$ IN7 $end
$var wire 4 3$ control [3:0] $end
$var reg 1 4$ bit_shift $end
$upscope $end
$scope module mux_4 $end
$var wire 1 5$ IN0 $end
$var wire 1 6$ IN1 $end
$var wire 1 7$ IN2 $end
$var wire 1 8$ IN3 $end
$var wire 1 9$ IN4 $end
$var wire 1 :$ IN5 $end
$var wire 1 ;$ IN6 $end
$var wire 1 <$ IN7 $end
$var wire 4 =$ control [3:0] $end
$var reg 1 >$ bit_shift $end
$upscope $end
$scope module mux_5 $end
$var wire 1 ?$ IN0 $end
$var wire 1 @$ IN1 $end
$var wire 1 A$ IN2 $end
$var wire 1 B$ IN3 $end
$var wire 1 C$ IN4 $end
$var wire 1 D$ IN5 $end
$var wire 1 E$ IN6 $end
$var wire 1 F$ IN7 $end
$var wire 4 G$ control [3:0] $end
$var reg 1 H$ bit_shift $end
$upscope $end
$scope module mux_6 $end
$var wire 1 I$ IN0 $end
$var wire 1 J$ IN1 $end
$var wire 1 K$ IN2 $end
$var wire 1 L$ IN3 $end
$var wire 1 M$ IN4 $end
$var wire 1 N$ IN5 $end
$var wire 1 O$ IN6 $end
$var wire 1 P$ IN7 $end
$var wire 4 Q$ control [3:0] $end
$var reg 1 R$ bit_shift $end
$upscope $end
$scope module mux_7 $end
$var wire 1 S$ IN0 $end
$var wire 1 T$ IN1 $end
$var wire 1 U$ IN2 $end
$var wire 1 V$ IN3 $end
$var wire 1 W$ IN4 $end
$var wire 1 X$ IN5 $end
$var wire 1 Y$ IN6 $end
$var wire 1 Z$ IN7 $end
$var wire 4 [$ control [3:0] $end
$var reg 1 \$ bit_shift $end
$upscope $end
$scope module mux_8 $end
$var wire 1 ]$ IN0 $end
$var wire 1 ^$ IN1 $end
$var wire 1 _$ IN2 $end
$var wire 1 `$ IN3 $end
$var wire 1 a$ IN4 $end
$var wire 1 b$ IN5 $end
$var wire 1 c$ IN6 $end
$var wire 1 d$ IN7 $end
$var wire 4 e$ control [3:0] $end
$var reg 1 f$ bit_shift $end
$upscope $end
$scope module mux_r_1 $end
$var wire 1 g$ IN0 $end
$var wire 1 h$ IN1 $end
$var wire 1 i$ IN2 $end
$var wire 1 j$ IN3 $end
$var wire 1 k$ IN4 $end
$var wire 1 l$ IN5 $end
$var wire 1 m$ IN6 $end
$var wire 1 n$ IN7 $end
$var wire 4 o$ control [3:0] $end
$var reg 1 p$ bit_shift $end
$upscope $end
$scope module mux_r_2 $end
$var wire 1 q$ IN0 $end
$var wire 1 r$ IN1 $end
$var wire 1 s$ IN2 $end
$var wire 1 t$ IN3 $end
$var wire 1 u$ IN4 $end
$var wire 1 v$ IN5 $end
$var wire 1 w$ IN6 $end
$var wire 1 x$ IN7 $end
$var wire 4 y$ control [3:0] $end
$var reg 1 z$ bit_shift $end
$upscope $end
$scope module mux_r_3 $end
$var wire 1 {$ IN0 $end
$var wire 1 |$ IN1 $end
$var wire 1 }$ IN2 $end
$var wire 1 ~$ IN3 $end
$var wire 1 !% IN4 $end
$var wire 1 "% IN5 $end
$var wire 1 #% IN6 $end
$var wire 1 $% IN7 $end
$var wire 4 %% control [3:0] $end
$var reg 1 &% bit_shift $end
$upscope $end
$scope module mux_r_4 $end
$var wire 1 '% IN0 $end
$var wire 1 (% IN1 $end
$var wire 1 )% IN2 $end
$var wire 1 *% IN3 $end
$var wire 1 +% IN4 $end
$var wire 1 ,% IN5 $end
$var wire 1 -% IN6 $end
$var wire 1 .% IN7 $end
$var wire 4 /% control [3:0] $end
$var reg 1 0% bit_shift $end
$upscope $end
$scope module mux_r_5 $end
$var wire 1 1% IN0 $end
$var wire 1 2% IN1 $end
$var wire 1 3% IN2 $end
$var wire 1 4% IN3 $end
$var wire 1 5% IN4 $end
$var wire 1 6% IN5 $end
$var wire 1 7% IN6 $end
$var wire 1 8% IN7 $end
$var wire 4 9% control [3:0] $end
$var reg 1 :% bit_shift $end
$upscope $end
$scope module mux_r_6 $end
$var wire 1 ;% IN0 $end
$var wire 1 <% IN1 $end
$var wire 1 =% IN2 $end
$var wire 1 >% IN3 $end
$var wire 1 ?% IN4 $end
$var wire 1 @% IN5 $end
$var wire 1 A% IN6 $end
$var wire 1 B% IN7 $end
$var wire 4 C% control [3:0] $end
$var reg 1 D% bit_shift $end
$upscope $end
$scope module mux_r_7 $end
$var wire 1 E% IN0 $end
$var wire 1 F% IN1 $end
$var wire 1 G% IN2 $end
$var wire 1 H% IN3 $end
$var wire 1 I% IN4 $end
$var wire 1 J% IN5 $end
$var wire 1 K% IN6 $end
$var wire 1 L% IN7 $end
$var wire 4 M% control [3:0] $end
$var reg 1 N% bit_shift $end
$upscope $end
$scope module mux_r_8 $end
$var wire 1 O% IN0 $end
$var wire 1 P% IN1 $end
$var wire 1 Q% IN2 $end
$var wire 1 R% IN3 $end
$var wire 1 S% IN4 $end
$var wire 1 T% IN5 $end
$var wire 1 U% IN6 $end
$var wire 1 V% IN7 $end
$var wire 4 W% control [3:0] $end
$var reg 1 X% bit_shift $end
$upscope $end
$upscope $end
$scope module mu_decoder $end
$var wire 32 Y% INSTRUCTION [31:0] $end
$var wire 32 Z% offset_addddress [31:0] $end
$var wire 3 [% SOURCE2 [2:0] $end
$var wire 3 \% SOURCE1 [2:0] $end
$var wire 8 ]% IMMEDIATE [7:0] $end
$var wire 3 ^% DESTINATION [2:0] $end
$upscope $end
$scope module my_complement $end
$var wire 8 _% OUT_COM [7:0] $end
$var wire 8 `% IN_COM [7:0] $end
$upscope $end
$scope module my_control_unit $end
$var wire 32 a% INSTRUCTION [31:0] $end
$var reg 3 b% ALUOP [2:0] $end
$var reg 2 c% BRANCH [1:0] $end
$var reg 1 : JUMP $end
$var reg 1 9 MUX1 $end
$var reg 1 8 MUX2 $end
$var reg 8 d% OPCODE [7:0] $end
$var reg 1 / WRITE $end
$var reg 1 * read_mem $end
$var reg 1 ( reg_write $end
$var reg 1 ' write_mem $end
$upscope $end
$scope module my_data_memory $end
$var wire 8 e% address [7:0] $end
$var wire 1 # clk $end
$var wire 1 * read $end
$var wire 1 $ reset $end
$var wire 1 ' write $end
$var wire 8 f% writedata [7:0] $end
$var reg 1 - busywait $end
$var reg 1 g% readaccess $end
$var reg 8 h% readdata [7:0] $end
$var reg 1 i% writeaccess $end
$var integer 32 j% i [31:0] $end
$upscope $end
$scope module my_mux_1 $end
$var wire 8 k% IN0 [7:0] $end
$var wire 1 9 control $end
$var wire 8 l% IN1 [7:0] $end
$var reg 8 m% out [7:0] $end
$upscope $end
$scope module my_mux_2 $end
$var wire 8 n% IN0 [7:0] $end
$var wire 8 o% IN1 [7:0] $end
$var wire 1 8 control $end
$var reg 8 p% out [7:0] $end
$upscope $end
$scope module my_reg_file $end
$var wire 1 # CLK $end
$var wire 3 q% INADDRESS [2:0] $end
$var wire 3 r% OUT1ADDRESS [2:0] $end
$var wire 3 s% OUT2ADDRESS [2:0] $end
$var wire 1 $ RESET $end
$var wire 1 / WRITE $end
$var wire 8 t% IN [7:0] $end
$var reg 8 u% OUT1 [7:0] $end
$var reg 8 v% OUT2 [7:0] $end
$var integer 32 w% i [31:0] $end
$upscope $end
$scope module reg_mux $end
$var wire 8 x% IN0 [7:0] $end
$var wire 8 y% IN1 [7:0] $end
$var wire 1 ( control $end
$var reg 8 z% out [7:0] $end
$upscope $end
$upscope $end
$upscope $end
$scope module cpu_tb $end
$scope module mycpu $end
$scope module my_reg_file $end
$var reg 8 {% \regfiles[0] [7:0] $end
$upscope $end
$upscope $end
$upscope $end
$scope module cpu_tb $end
$scope module mycpu $end
$scope module my_reg_file $end
$var reg 8 |% \regfiles[1] [7:0] $end
$upscope $end
$upscope $end
$upscope $end
$scope module cpu_tb $end
$scope module mycpu $end
$scope module my_reg_file $end
$var reg 8 }% \regfiles[2] [7:0] $end
$upscope $end
$upscope $end
$upscope $end
$scope module cpu_tb $end
$scope module mycpu $end
$scope module my_reg_file $end
$var reg 8 ~% \regfiles[3] [7:0] $end
$upscope $end
$upscope $end
$upscope $end
$scope module cpu_tb $end
$scope module mycpu $end
$scope module my_reg_file $end
$var reg 8 !& \regfiles[4] [7:0] $end
$upscope $end
$upscope $end
$upscope $end
$scope module cpu_tb $end
$scope module mycpu $end
$scope module my_reg_file $end
$var reg 8 "& \regfiles[5] [7:0] $end
$upscope $end
$upscope $end
$upscope $end
$scope module cpu_tb $end
$scope module mycpu $end
$scope module my_reg_file $end
$var reg 8 #& \regfiles[6] [7:0] $end
$upscope $end
$upscope $end
$upscope $end
$scope module cpu_tb $end
$scope module mycpu $end
$scope module my_reg_file $end
$var reg 8 $& \regfiles[7] [7:0] $end
$upscope $end
$upscope $end
$upscope $end
$enddefinitions $end
#0
$dumpvars
bx $&
bx #&
bx "&
bx !&
bx ~%
bx }%
bx |%
bx {%
bx z%
bx y%
bx x%
bx w%
bx v%
bx u%
bx t%
bx s%
bx r%
bx q%
bx p%
bx o%
bx n%
bx m%
bx l%
bx k%
bx j%
xi%
bx h%
xg%
bx f%
bx e%
bx d%
bx c%
bx b%
bx a%
bx `%
bx _%
bx ^%
bx ]%
bx \%
bx [%
b0xxxxxxxx Z%
bx Y%
xX%
bx W%
xV%
xU%
xT%
xS%
xR%
xQ%
xP%
xO%
xN%
bx M%
xL%
xK%
xJ%
xI%
xH%
xG%
xF%
xE%
xD%
bx C%
xB%
xA%
x@%
x?%
x>%
x=%
x<%
x;%
x:%
bx 9%
x8%
x7%
x6%
x5%
x4%
x3%
x2%
x1%
x0%
bx /%
x.%
x-%
x,%
x+%
x*%
x)%
x(%
x'%
x&%
bx %%
x$%
x#%
x"%
x!%
x~$
x}$
x|$
x{$
xz$
bx y$
xx$
xw$
xv$
xu$
xt$
xs$
xr$
xq$
xp$
bx o$
xn$
xm$
xl$
xk$
xj$
xi$
xh$
xg$
xf$
bx e$
xd$
xc$
xb$
xa$
x`$
x_$
x^$
x]$
x\$
bx [$
xZ$
xY$
xX$
xW$
xV$
xU$
xT$
xS$
xR$
bx Q$
xP$
xO$
xN$
xM$
xL$
xK$
xJ$
xI$
xH$
bx G$
xF$
xE$
xD$
xC$
xB$
xA$
x@$
x?$
x>$
bx =$
x<$
x;$
x:$
x9$
x8$
x7$
x6$
x5$
x4$
bx 3$
x2$
x1$
x0$
x/$
x.$
x-$
x,$
x+$
x*$
bx )$
x($
x'$
x&$
x%$
x$$
x#$
x"$
x!$
x~#
bx }#
x|#
x{#
xz#
xy#
xx#
xw#
xv#
xu#
xt#
xs#
0r#
xq#
xp#
0o#
xn#
xm#
xl#
xk#
xj#
xi#
1h#
xg#
xf#
xe#
xd#
xc#
xb#
1a#
x`#
x_#
x^#
x]#
0\#
x[#
0Z#
1Y#
xX#
bx W#
b111 V#
bx U#
xT#
xS#
0R#
xQ#
xP#
0O#
xN#
xM#
xL#
xK#
xJ#
xI#
1H#
xG#
xF#
xE#
xD#
0C#
xB#
1A#
x@#
x?#
0>#
0=#
0<#
x;#
0:#
09#
x8#
bx 7#
b110 6#
bx 5#
x4#
x3#
02#
x1#
x0#
0/#
x.#
x-#
x,#
x+#
x*#
x)#
1(#
x'#
x&#
x%#
0$#
x##
x"#
0!#
x~"
x}"
x|"
x{"
0z"
xy"
0x"
1w"
xv"
bx u"
b101 t"
bx s"
xr"
xq"
0p"
xo"
xn"
0m"
xl"
xk"
xj"
xi"
0h"
xg"
1f"
xe"
xd"
0c"
0b"
0a"
x`"
0_"
x^"
x]"
0\"
0["
0Z"
xY"
0X"
0W"
xV"
bx U"
b100 T"
bx S"
xR"
xQ"
0P"
xO"
xN"
0M"
xL"
xK"
xJ"
0I"
xH"
xG"
0F"
xE"
xD"
xC"
xB"
xA"
x@"
1?"
x>"
x="
x<"
x;"
0:"
x9"
08"
17"
x6"
bx 5"
b11 4"
bx 3"
x2"
x1"
00"
x/"
x."
0-"
x,"
x+"
x*"
0)"
x("
x'"
0&"
x%"
x$"
x#"
x""
0!"
x~
1}
x|
x{
0z
0y
0x
xw
0v
0u
xt
bx s
b10 r
bx q
xp
xo
0n
xm
xl
0k
xj
xi
xh
0g
xf
xe
0d
xc
xb
xa
0`
x_
x^
0]
x\
x[
xZ
xY
0X
xW
0V
1U
xT
bx S
b1 R
bx Q
b1000 P
b0 O
bx N
bx M
bx L
bx K
bx J
bx I
bx H
bx G
bx F
bx E
b0xxxxxxxx D
b0xxxxxxxx C
xB
b0xxxxxxxx00 A
bx @
bx ?
bx >
bx =
bx <
bx ;
x:
x9
x8
bx 7
bx 6
bx 5
bx 4
bx 3
bx 2
bx 1
bx 0
x/
x.
x-
b0xxxxxxxx ,
bx +
x*
bx )
x(
x'
bx &
b1000 %
1$
0#
bx "
bx !
$end
#4
0-
b100000000 j%
b0 $&
b0 #&
b0 "&
b0 !&
b0 ~%
b0 }%
b0 |%
b0 {%
b1000 w%
1#
#5
b0 !
b0 ?
0$
#7
b0 1
b0 \%
b0 r%
b0 A
b0 <
b0 ^%
b0 q%
b101 0
b101 [%
b101 s%
b101 ;
b101 ]%
b101 k%
b0 ,
b0 Z%
b0 d%
b101 "
b101 &
b101 Y%
b101 a%
#8
bx00000 N
b0x0x K
bx1x1 L
00%
1R"
0p
1J"
0X%
0h
02"
1H"
0K"
0D%
1m#
0f
1i
0*"
1C"
0-#
1e#
1b
0a
0o
0("
1+"
01"
1A"
0D"
0Q"
0:%
1r"
0q"
1&#
0%#
14#
03#
bx00000 G
0N%
0M#
1T#
0S#
1c#
0f#
1t#
0s#
b110 S
b110 )$
b110 y$
0[
1Z
0_
0m
1{
b111 s
b111 3$
b111 %%
1$"
0#"
0/"
b1000 5"
b1000 =$
b1000 /%
0="
1<"
0O"
1]"
0d"
b1001 U"
b1001 G$
b1001 9%
0k"
1j"
0o"
b1010 u"
b1010 Q$
b1010 C%
0}"
1|"
0##
0*#
1,#
01#
1?#
b1011 7#
b1011 [$
b1011 M%
1F#
0E#
0J#
1L#
0Q#
b1100 W#
b1100 e$
b1100 W%
0_#
1^#
0j#
1l#
0q#
0W
1Y
0^
1e
0l
1w
1~
0""
1'"
0."
09"
1;"
1@"
0B"
1G"
0N"
1Y"
0`"
0g"
1i"
0n"
0y"
1{"
0"#
0)#
1+#
00#
1;#
1B#
0D#
0I#
1K#
0P#
0[#
1]#
1b#
0d#
0i#
1k#
0p#
1T
0\
1c
0j
1t
0|
1%"
0,"
16"
0>"
1E"
0L"
1V"
0^"
1e"
0l"
1v"
0~"
1'#
0.#
18#
0@#
1G#
0N#
1X#
0`#
1g#
0n#
b1000 P
b101 Q
b101 q
b101 3"
b101 S"
b101 s"
b101 5#
b101 U#
b101 }#
b101 o$
0i%
0g%
b101 D
b101 3
b101 I
b101 p%
b101 4
b101 `%
b101 m%
b101 n%
0(
0*
0'
b0 =
b0 c%
0:
b0 >
b0 E
b0 b%
08
09
1/
0#
#9
b0 N
b0 K
b101 L
b101 J
0&%
0z$
b0 G
0p$
0f$
0\$
0R$
0H$
0>$
04$
0*$
b0 F
0~#
b1000 P
0V%
0U%
0T%
0S%
0R%
0Q%
0P%
0O%
0L%
0K%
0J%
0I%
0H%
0G%
0F%
0E%
0B%
0A%
0@%
0?%
0>%
0=%
0<%
0;%
08%
07%
06%
05%
04%
03%
02%
01%
0.%
0-%
0,%
0+%
0*%
0)%
0(%
0'%
0$%
0#%
0"%
0!%
0~$
0}$
0|$
0{$
0x$
0w$
0v$
0u$
0t$
0s$
0r$
0q$
0n$
0m$
0l$
0k$
0j$
0i$
0h$
0g$
0d$
0c$
0b$
0a$
0`$
0_$
0^$
0]$
0Z$
0Y$
0X$
0W$
0V$
0U$
0T$
0S$
0P$
0O$
0N$
0M$
0L$
0K$
0J$
0I$
0F$
0E$
0D$
0C$
0B$
0A$
0@$
0?$
0<$
0;$
0:$
09$
08$
07$
06$
05$
02$
01$
00$
0/$
0.$
0-$
0,$
0+$
0($
0'$
0&$
0%$
0$$
0#$
0"$
0!$
0|#
0{#
0z#
0y#
0x#
0w#
0v#
0u#
b0 6
b0 l%
b0 v%
b0 C
b0 7
b0 H
b0 f%
b0 u%
b101 +
b101 t%
b101 z%
b11111011 5
b11111011 _%
b11111011 o%
0.
b101 2
b101 M
b101 e%
b101 x%
b0 @
#12
0B
1#
#13
b100 !
b100 ?
b101 {%
#15
b1 K
1\$
b1010 F
1H$
b101101 O
1V%
1T%
1L%
1J%
1B%
1@%
18%
16%
1.%
1,%
1$%
1"%
1x$
1v$
1n$
1l$
1d$
1b$
1Z$
1X$
1P$
1N$
1F$
1D$
1<$
1:$
12$
10$
1($
1&$
1|#
1z#
b1101 L
b1110 J
b101 C
b101 7
b101 H
b101 f%
b101 u%
0J"
0Q"
0q"
03#
0S#
1s#
0i
b1010 S
b1010 )$
b1010 y$
1p
0+"
b1011 s
b1011 3$
b1011 %%
12"
0H"
1K"
0O"
b1100 5"
b1100 =$
b1100 /%
1R"
1k"
0j"
0o"
b1101 U"
b1101 G$
b1101 9%
1r"
1-#
0,#
01#
b1110 u"
b1110 Q$
b1110 C%
14#
1M#
0L#
0Q#
b1111 7#
b1111 [$
b1111 M%
1T#
1j#
0m#
1l#
1q#
b0 W#
b0 e$
b0 W%
0t#
0e
1l
0'"
1."
0G"
1N"
1g"
0i"
1n"
1)#
0+#
10#
1I#
0K#
1P#
1i#
0k#
1p#
0c
1j
0%"
1,"
0E"
1L"
0e"
1l"
0'#
1.#
0G#
1N#
0g#
1n#
b1000 P
b1001 Q
b1001 q
b1001 3"
b1001 S"
b1001 s"
b1001 5#
b1001 U#
b1001 }#
b1001 o$
b1001 D
b1001 3
b1001 I
b1001 p%
b1001 4
b1001 `%
b1001 m%
b1001 n%
b100 A
b1 <
b1 ^%
b1 q%
b1 0
b1 [%
b1 s%
b1001 ;
b1001 ]%
b1001 k%
b1 ,
b1 Z%
b100 @
b10000000000001001 "
b10000000000001001 &
b10000000000001001 Y%
b10000000000001001 a%
#16
b1001 +
b1001 t%
b1001 z%
b1001 2
b1001 M
b1001 e%
b1001 x%
b11110111 5
b11110111 _%
b11110111 o%
0#
#17
b1000 @
#20
1#
#21
b1000 !
b1000 ?
b1001 |%
