8-bit RISC-V processor/cpu_wavedata.vcd
$date
	Tue Jun 27 18:42:38 2023
$end
$version
	Icarus Verilog
$end
$timescale
	100ps
$end
$scope module cpu_tb $end
$var wire 128 ! readinst [127:0] $end
$var wire 1 " mem_read $end
$var wire 6 # mem_address [5:0] $end
$var wire 1 $ inst_mem_busywait $end
$var wire 1 % inst_mem_busy $end
$var wire 1 & inst_busywait $end
$var wire 32 ' PC [31:0] $end
$var wire 32 ( INSTRUCTION [31:0] $end
$var reg 1 ) CLK $end
$var reg 1 * RESET $end
$var integer 32 + i [31:0] $end
$scope module inst_memory $end
$var wire 1 ) clock $end
$var wire 1 " read $end
$var wire 6 , address [5:0] $end
$var reg 1 $ busywait $end
$var reg 1 - readaccess $end
$var reg 128 . readinst [127:0] $end
$upscope $end
$scope module my_inst_cache $end
$var wire 10 / address [9:0] $end
$var wire 1 ) clock $end
$var wire 1 0 hit $end
$var wire 1 $ mem_busywait $end
$var wire 128 1 mem_readinst [127:0] $end
$var wire 1 * reset $end
$var wire 1 2 valid $end
$var wire 1 3 tagmatch $end
$var wire 3 4 tag [2:0] $end
$var wire 2 5 offset [1:0] $end
$var wire 3 6 index [2:0] $end
$var reg 1 & busywait $end
$var reg 32 7 instruction [31:0] $end
$var reg 6 8 mem_address [5:0] $end
$var reg 1 " mem_read $end
$var reg 3 9 next_state [2:0] $end
$var reg 3 : state [2:0] $end
$var integer 32 ; i [31:0] $end
$upscope $end
$scope module mycpu $end
$var wire 1 ) CLK $end
$var wire 32 < INSTRUCTION [31:0] $end
$var wire 1 * RESET $end
$var wire 1 % inst_mem_busy $end
$var wire 1 = write_mem $end
$var wire 1 > reg_write $end
$var wire 8 ? readdata [7:0] $end
$var wire 1 @ read_mem $end
$var wire 8 A out_reg_mux [7:0] $end
$var wire 32 B offset_addddress [31:0] $end
$var wire 32 C mem_writedata [31:0] $end
$var wire 1 D mem_write $end
$var wire 32 E mem_readdata [31:0] $end
$var wire 1 F mem_read $end
$var wire 1 G mem_busywait $end
$var wire 6 H mem_address [5:0] $end
$var wire 1 I busywait $end
$var wire 1 J ZERO $end
$var wire 1 K WRITE $end
$var wire 3 L SOURCE2 [2:0] $end
$var wire 3 M SOURCE1 [2:0] $end
$var wire 8 N RESULT [7:0] $end
$var wire 8 O OUT_MUX2 [7:0] $end
$var wire 8 P OUT_MUX1 [7:0] $end
$var wire 8 Q OUT_COM [7:0] $end
$var wire 8 R OUT2 [7:0] $end
$var wire 8 S OUT1 [7:0] $end
$var wire 1 T MUX2 $end
$var wire 1 U MUX1 $end
$var wire 1 V JUMP $end
$var wire 8 W IMMEDIATE [7:0] $end
$var wire 3 X DESTINATION [2:0] $end
$var wire 2 Y BRANCH [1:0] $end
$var wire 3 Z ALUOP [2:0] $end
$var reg 32 [ PC [31:0] $end
$var reg 32 \ branch_address [31:0] $end
$var reg 32 ] offset_address_multiple_4 [31:0] $end
$var reg 1 ^ pc_case $end
$scope module alu $end
$var wire 16 _ multiplier [15:0] $end
$var wire 16 ` multiplicand [15:0] $end
$var wire 1 J ZERO $end
$var wire 3 a SELECT [2:0] $end
$var wire 8 b R_SHIFT [7:0] $end
$var wire 8 c L_SHIFT [7:0] $end
$var wire 8 d DATA2 [7:0] $end
$var wire 8 e DATA1 [7:0] $end
$var reg 8 f ADD [7:0] $end
$var reg 8 g AND [7:0] $end
$var reg 8 h OR [7:0] $end
$var reg 8 i RESULT [7:0] $end
$var reg 8 j arithmetic_shift [7:0] $end
$var reg 16 k product [15:0] $end
$var integer 32 l i [31:0] $end
$scope module FA_1 $end
$var wire 4 m A [3:0] $end
$var wire 4 n B [3:0] $end
$var wire 4 o S [3:0] $end
$scope module fa $end
$var wire 1 p a $end
$var wire 1 q b $end
$var wire 1 r ci $end
$var wire 1 s wire_1 $end
$var wire 1 t wire_2 $end
$var wire 1 u wire_3 $end
$var reg 1 v co $end
$var reg 1 w sum $end
$upscope $end
$scope module fb $end
$var wire 1 x a $end
$var wire 1 y b $end
$var wire 1 v ci $end
$var wire 1 z wire_1 $end
$var wire 1 { wire_2 $end
$var wire 1 | wire_3 $end
$var reg 1 } co $end
$var reg 1 ~ sum $end
$upscope $end
$scope module fc $end
$var wire 1 !" a $end
$var wire 1 "" b $end
$var wire 1 } ci $end
$var wire 1 #" wire_1 $end
$var wire 1 $" wire_2 $end
$var wire 1 %" wire_3 $end
$var reg 1 &" co $end
$var reg 1 '" sum $end
$upscope $end
$scope module fd $end
$var wire 1 (" a $end
$var wire 1 )" b $end
$var wire 1 &" ci $end
$var wire 1 *" wire_1 $end
$var wire 1 +" wire_2 $end
$var wire 1 ," wire_3 $end
$var reg 1 -" co $end
$var reg 1 ." sum $end
$upscope $end
$upscope $end
$scope module FA_2 $end
$var wire 4 /" A [3:0] $end
$var wire 4 0" B [3:0] $end
$var wire 4 1" S [3:0] $end
$scope module fa $end
$var wire 1 2" a $end
$var wire 1 3" b $end
$var wire 1 4" ci $end
$var wire 1 5" wire_1 $end
$var wire 1 6" wire_2 $end
$var wire 1 7" wire_3 $end
$var reg 1 8" co $end
$var reg 1 9" sum $end
$upscope $end
$scope module fb $end
$var wire 1 :" a $end
$var wire 1 ;" b $end
$var wire 1 8" ci $end
$var wire 1 <" wire_1 $end
$var wire 1 =" wire_2 $end
$var wire 1 >" wire_3 $end
$var reg 1 ?" co $end
$var reg 1 @" sum $end
$upscope $end
$scope module fc $end
$var wire 1 A" a $end
$var wire 1 B" b $end
$var wire 1 ?" ci $end
$var wire 1 C" wire_1 $end
$var wire 1 D" wire_2 $end
$var wire 1 E" wire_3 $end
$var reg 1 F" co $end
$var reg 1 G" sum $end
$upscope $end
$scope module fd $end
$var wire 1 H" a $end
$var wire 1 I" b $end
$var wire 1 F" ci $end
$var wire 1 J" wire_1 $end
$var wire 1 K" wire_2 $end
$var wire 1 L" wire_3 $end
$var reg 1 M" co $end
$var reg 1 N" sum $end
$upscope $end
$upscope $end
$scope module FA_3 $end
$var wire 4 O" A [3:0] $end
$var wire 4 P" B [3:0] $end
$var wire 4 Q" S [3:0] $end
$scope module fa $end
$var wire 1 R" a $end
$var wire 1 S" b $end
$var wire 1 T" ci $end
$var wire 1 U" wire_1 $end
$var wire 1 V" wire_2 $end
$var wire 1 W" wire_3 $end
$var reg 1 X" co $end
$var reg 1 Y" sum $end
$upscope $end
$scope module fb $end
$var wire 1 Z" a $end
$var wire 1 [" b $end
$var wire 1 X" ci $end
$var wire 1 \" wire_1 $end
$var wire 1 ]" wire_2 $end
$var wire 1 ^" wire_3 $end
$var reg 1 _" co $end
$var reg 1 `" sum $end
$upscope $end
$scope module fc $end
$var wire 1 a" a $end
$var wire 1 b" b $end
$var wire 1 _" ci $end
$var wire 1 c" wire_1 $end
$var wire 1 d" wire_2 $end
$var wire 1 e" wire_3 $end
$var reg 1 f" co $end
$var reg 1 g" sum $end
$upscope $end
$scope module fd $end
$var wire 1 h" a $end
$var wire 1 i" b $end
$var wire 1 f" ci $end
$var wire 1 j" wire_1 $end
$var wire 1 k" wire_2 $end
$var wire 1 l" wire_3 $end
$var reg 1 m" co $end
$var reg 1 n" sum $end
$upscope $end
$upscope $end
$scope module FA_4 $end
$var wire 4 o" A [3:0] $end
$var wire 4 p" B [3:0] $end
$var wire 4 q" S [3:0] $end
$scope module fa $end
$var wire 1 r" a $end
$var wire 1 s" b $end
$var wire 1 t" ci $end
$var wire 1 u" wire_1 $end
$var wire 1 v" wire_2 $end
$var wire 1 w" wire_3 $end
$var reg 1 x" co $end
$var reg 1 y" sum $end
$upscope $end
$scope module fb $end
$var wire 1 z" a $end
$var wire 1 {" b $end
$var wire 1 x" ci $end
$var wire 1 |" wire_1 $end
$var wire 1 }" wire_2 $end
$var wire 1 ~" wire_3 $end
$var reg 1 !# co $end
$var reg 1 "# sum $end
$upscope $end
$scope module fc $end
$var wire 1 ## a $end
$var wire 1 $# b $end
$var wire 1 !# ci $end
$var wire 1 %# wire_1 $end
$var wire 1 &# wire_2 $end
$var wire 1 '# wire_3 $end
$var reg 1 (# co $end
$var reg 1 )# sum $end
$upscope $end
$scope module fd $end
$var wire 1 *# a $end
$var wire 1 +# b $end
$var wire 1 (# ci $end
$var wire 1 ,# wire_1 $end
$var wire 1 -# wire_2 $end
$var wire 1 .# wire_3 $end
$var reg 1 /# co $end
$var reg 1 0# sum $end
$upscope $end
$upscope $end
$scope module FA_5 $end
$var wire 4 1# A [3:0] $end
$var wire 4 2# B [3:0] $end
$var wire 4 3# S [3:0] $end
$scope module fa $end
$var wire 1 4# a $end
$var wire 1 5# b $end
$var wire 1 6# ci $end
$var wire 1 7# wire_1 $end
$var wire 1 8# wire_2 $end
$var wire 1 9# wire_3 $end
$var reg 1 :# co $end
$var reg 1 ;# sum $end
$upscope $end
$scope module fb $end
$var wire 1 <# a $end
$var wire 1 =# b $end
$var wire 1 :# ci $end
$var wire 1 ># wire_1 $end
$var wire 1 ?# wire_2 $end
$var wire 1 @# wire_3 $end
$var reg 1 A# co $end
$var reg 1 B# sum $end
$upscope $end
$scope module fc $end
$var wire 1 C# a $end
$var wire 1 D# b $end
$var wire 1 A# ci $end
$var wire 1 E# wire_1 $end
$var wire 1 F# wire_2 $end
$var wire 1 G# wire_3 $end
$var reg 1 H# co $end
$var reg 1 I# sum $end
$upscope $end
$scope module fd $end
$var wire 1 J# a $end
$var wire 1 K# b $end
$var wire 1 H# ci $end
$var wire 1 L# wire_1 $end
$var wire 1 M# wire_2 $end
$var wire 1 N# wire_3 $end
$var reg 1 O# co $end
$var reg 1 P# sum $end
$upscope $end
$upscope $end
$scope module FA_6 $end
$var wire 4 Q# A [3:0] $end
$var wire 4 R# B [3:0] $end
$var wire 4 S# S [3:0] $end
$scope module fa $end
$var wire 1 T# a $end
$var wire 1 U# b $end
$var wire 1 V# ci $end
$var wire 1 W# wire_1 $end
$var wire 1 X# wire_2 $end
$var wire 1 Y# wire_3 $end
$var reg 1 Z# co $end
$var reg 1 [# sum $end
$upscope $end
$scope module fb $end
$var wire 1 \# a $end
$var wire 1 ]# b $end
$var wire 1 Z# ci $end
$var wire 1 ^# wire_1 $end
$var wire 1 _# wire_2 $end
$var wire 1 `# wire_3 $end
$var reg 1 a# co $end
$var reg 1 b# sum $end
$upscope $end
$scope module fc $end
$var wire 1 c# a $end
$var wire 1 d# b $end
$var wire 1 a# ci $end
$var wire 1 e# wire_1 $end
$var wire 1 f# wire_2 $end
$var wire 1 g# wire_3 $end
$var reg 1 h# co $end
$var reg 1 i# sum $end
$upscope $end
$scope module fd $end
$var wire 1 j# a $end
$var wire 1 k# b $end
$var wire 1 h# ci $end
$var wire 1 l# wire_1 $end
$var wire 1 m# wire_2 $end
$var wire 1 n# wire_3 $end
$var reg 1 o# co $end
$var reg 1 p# sum $end
$upscope $end
$upscope $end
$scope module FA_7 $end
$var wire 4 q# A [3:0] $end
$var wire 4 r# B [3:0] $end
$var wire 4 s# S [3:0] $end
$scope module fa $end
$var wire 1 t# a $end
$var wire 1 u# b $end
$var wire 1 v# ci $end
$var wire 1 w# wire_1 $end
$var wire 1 x# wire_2 $end
$var wire 1 y# wire_3 $end
$var reg 1 z# co $end
$var reg 1 {# sum $end
$upscope $end
$scope module fb $end
$var wire 1 |# a $end
$var wire 1 }# b $end
$var wire 1 z# ci $end
$var wire 1 ~# wire_1 $end
$var wire 1 !$ wire_2 $end
$var wire 1 "$ wire_3 $end
$var reg 1 #$ co $end
$var reg 1 $$ sum $end
$upscope $end
$scope module fc $end
$var wire 1 %$ a $end
$var wire 1 &$ b $end
$var wire 1 #$ ci $end
$var wire 1 '$ wire_1 $end
$var wire 1 ($ wire_2 $end
$var wire 1 )$ wire_3 $end
$var reg 1 *$ co $end
$var reg 1 +$ sum $end
$upscope $end
$scope module fd $end
$var wire 1 ,$ a $end
$var wire 1 -$ b $end
$var wire 1 *$ ci $end
$var wire 1 .$ wire_1 $end
$var wire 1 /$ wire_2 $end
$var wire 1 0$ wire_3 $end
$var reg 1 1$ co $end
$var reg 1 2$ sum $end
$upscope $end
$upscope $end
$scope module mux_1 $end
$var wire 1 3$ IN0 $end
$var wire 1 4$ IN1 $end
$var wire 1 5$ IN2 $end
$var wire 1 6$ IN3 $end
$var wire 1 7$ IN4 $end
$var wire 1 8$ IN5 $end
$var wire 1 9$ IN6 $end
$var wire 1 :$ IN7 $end
$var wire 4 ;$ control [3:0] $end
$var reg 1 <$ bit_shift $end
$upscope $end
$scope module mux_2 $end
$var wire 1 =$ IN0 $end
$var wire 1 >$ IN1 $end
$var wire 1 ?$ IN2 $end
$var wire 1 @$ IN3 $end
$var wire 1 A$ IN4 $end
$var wire 1 B$ IN5 $end
$var wire 1 C$ IN6 $end
$var wire 1 D$ IN7 $end
$var wire 4 E$ control [3:0] $end
$var reg 1 F$ bit_shift $end
$upscope $end
$scope module mux_3 $end
$var wire 1 G$ IN0 $end
$var wire 1 H$ IN1 $end
$var wire 1 I$ IN2 $end
$var wire 1 J$ IN3 $end
$var wire 1 K$ IN4 $end
$var wire 1 L$ IN5 $end
$var wire 1 M$ IN6 $end
$var wire 1 N$ IN7 $end
$var wire 4 O$ control [3:0] $end
$var reg 1 P$ bit_shift $end
$upscope $end
$scope module mux_4 $end
$var wire 1 Q$ IN0 $end
$var wire 1 R$ IN1 $end
$var wire 1 S$ IN2 $end
$var wire 1 T$ IN3 $end
$var wire 1 U$ IN4 $end
$var wire 1 V$ IN5 $end
$var wire 1 W$ IN6 $end
$var wire 1 X$ IN7 $end
$var wire 4 Y$ control [3:0] $end
$var reg 1 Z$ bit_shift $end
$upscope $end
$scope module mux_5 $end
$var wire 1 [$ IN0 $end
$var wire 1 \$ IN1 $end
$var wire 1 ]$ IN2 $end
$var wire 1 ^$ IN3 $end
$var wire 1 _$ IN4 $end
$var wire 1 `$ IN5 $end
$var wire 1 a$ IN6 $end
$var wire 1 b$ IN7 $end
$var wire 4 c$ control [3:0] $end
$var reg 1 d$ bit_shift $end
$upscope $end
$scope module mux_6 $end
$var wire 1 e$ IN0 $end
$var wire 1 f$ IN1 $end
$var wire 1 g$ IN2 $end
$var wire 1 h$ IN3 $end
$var wire 1 i$ IN4 $end
$var wire 1 j$ IN5 $end
$var wire 1 k$ IN6 $end
$var wire 1 l$ IN7 $end
$var wire 4 m$ control [3:0] $end
$var reg 1 n$ bit_shift $end
$upscope $end
$scope module mux_7 $end
$var wire 1 o$ IN0 $end
$var wire 1 p$ IN1 $end
$var wire 1 q$ IN2 $end
$var wire 1 r$ IN3 $end
$var wire 1 s$ IN4 $end
$var wire 1 t$ IN5 $end
$var wire 1 u$ IN6 $end
$var wire 1 v$ IN7 $end
$var wire 4 w$ control [3:0] $end
$var reg 1 x$ bit_shift $end
$upscope $end
$scope module mux_8 $end
$var wire 1 y$ IN0 $end
$var wire 1 z$ IN1 $end
$var wire 1 {$ IN2 $end
$var wire 1 |$ IN3 $end
$var wire 1 }$ IN4 $end
$var wire 1 ~$ IN5 $end
$var wire 1 !% IN6 $end
$var wire 1 "% IN7 $end
$var wire 4 #% control [3:0] $end
$var reg 1 $% bit_shift $end
$upscope $end
$scope module mux_r_1 $end
$var wire 1 %% IN0 $end
$var wire 1 &% IN1 $end
$var wire 1 '% IN2 $end
$var wire 1 (% IN3 $end
$var wire 1 )% IN4 $end
$var wire 1 *% IN5 $end
$var wire 1 +% IN6 $end
$var wire 1 ,% IN7 $end
$var wire 4 -% control [3:0] $end
$var reg 1 .% bit_shift $end
$upscope $end
$scope module mux_r_2 $end
$var wire 1 /% IN0 $end
$var wire 1 0% IN1 $end
$var wire 1 1% IN2 $end
$var wire 1 2% IN3 $end
$var wire 1 3% IN4 $end
$var wire 1 4% IN5 $end
$var wire 1 5% IN6 $end
$var wire 1 6% IN7 $end
$var wire 4 7% control [3:0] $end
$var reg 1 8% bit_shift $end
$upscope $end
$scope module mux_r_3 $end
$var wire 1 9% IN0 $end
$var wire 1 :% IN1 $end
$var wire 1 ;% IN2 $end
$var wire 1 <% IN3 $end
$var wire 1 =% IN4 $end
$var wire 1 >% IN5 $end
$var wire 1 ?% IN6 $end
$var wire 1 @% IN7 $end
$var wire 4 A% control [3:0] $end
$var reg 1 B% bit_shift $end
$upscope $end
$scope module mux_r_4 $end
$var wire 1 C% IN0 $end
$var wire 1 D% IN1 $end
$var wire 1 E% IN2 $end
$var wire 1 F% IN3 $end
$var wire 1 G% IN4 $end
$var wire 1 H% IN5 $end
$var wire 1 I% IN6 $end
$var wire 1 J% IN7 $end
$var wire 4 K% control [3:0] $end
$var reg 1 L% bit_shift $end
$upscope $end
$scope module mux_r_5 $end
$var wire 1 M% IN0 $end
$var wire 1 N% IN1 $end
$var wire 1 O% IN2 $end
$var wire 1 P% IN3 $end
$var wire 1 Q% IN4 $end
$var wire 1 R% IN5 $end
$var wire 1 S% IN6 $end
$var wire 1 T% IN7 $end
$var wire 4 U% control [3:0] $end
$var reg 1 V% bit_shift $end
$upscope $end
$scope module mux_r_6 $end
$var wire 1 W% IN0 $end
$var wire 1 X% IN1 $end
$var wire 1 Y% IN2 $end
$var wire 1 Z% IN3 $end
$var wire 1 [% IN4 $end
$var wire 1 \% IN5 $end
$var wire 1 ]% IN6 $end
$var wire 1 ^% IN7 $end
$var wire 4 _% control [3:0] $end
$var reg 1 `% bit_shift $end
$upscope $end
$scope module mux_r_7 $end
$var wire 1 a% IN0 $end
$var wire 1 b% IN1 $end
$var wire 1 c% IN2 $end
$var wire 1 d% IN3 $end
$var wire 1 e% IN4 $end
$var wire 1 f% IN5 $end
$var wire 1 g% IN6 $end
$var wire 1 h% IN7 $end
$var wire 4 i% control [3:0] $end
$var reg 1 j% bit_shift $end
$upscope $end
$scope module mux_r_8 $end
$var wire 1 k% IN0 $end
$var wire 1 l% IN1 $end
$var wire 1 m% IN2 $end
$var wire 1 n% IN3 $end
$var wire 1 o% IN4 $end
$var wire 1 p% IN5 $end
$var wire 1 q% IN6 $end
$var wire 1 r% IN7 $end
$var wire 4 s% control [3:0] $end
$var reg 1 t% bit_shift $end
$upscope $end
$upscope $end
$scope module data_cache $end
$var wire 8 u% address [7:0] $end
$var wire 1 ) clock $end
$var wire 1 v% dirty $end
$var wire 1 w% hit $end
$var wire 1 * reset $end
$var wire 1 x% valid $end
$var wire 1 = write $end
$var wire 1 y% tagmatch $end
$var wire 3 z% tag [2:0] $end
$var wire 1 @ read $end
$var wire 2 {% offset [1:0] $end
$var wire 32 |% mem_readdata [31:0] $end
$var wire 1 G mem_busywait $end
$var wire 3 }% index [2:0] $end
$var wire 8 ~% cpu_writeData [7:0] $end
$var reg 1 I busywait $end
$var reg 1 !& cache_write $end
$var reg 8 "& cpu_readData [7:0] $end
$var reg 6 #& mem_address [5:0] $end
$var reg 1 F mem_read $end
$var reg 1 D mem_write $end
$var reg 32 $& mem_writedata [31:0] $end
$var reg 3 %& next_state [2:0] $end
$var reg 3 && state [2:0] $end
$var integer 32 '& i [31:0] $end
$upscope $end
$scope module mu_decoder $end
$var wire 32 (& INSTRUCTION [31:0] $end
$var wire 32 )& offset_addddress [31:0] $end
$var wire 3 *& SOURCE2 [2:0] $end
$var wire 3 +& SOURCE1 [2:0] $end
$var wire 8 ,& IMMEDIATE [7:0] $end
$var wire 3 -& DESTINATION [2:0] $end
$upscope $end
$scope module my_complement $end
$var wire 8 .& OUT_COM [7:0] $end
$var wire 8 /& IN_COM [7:0] $end
$upscope $end
$scope module my_control_unit $end
$var wire 32 0& INSTRUCTION [31:0] $end
$var reg 3 1& ALUOP [2:0] $end
$var reg 2 2& BRANCH [1:0] $end
$var reg 1 V JUMP $end
$var reg 1 U MUX1 $end
$var reg 1 T MUX2 $end
$var reg 8 3& OPCODE [7:0] $end
$var reg 1 K WRITE $end
$var reg 1 @ read_mem $end
$var reg 1 > reg_write $end
$var reg 1 = write_mem $end
$upscope $end
$scope module my_data_memory $end
$var wire 6 4& address [5:0] $end
$var wire 1 ) clk $end
$var wire 1 F read $end
$var wire 1 * reset $end
$var wire 1 D write $end
$var wire 32 5& writedata [31:0] $end
$var reg 1 G busywait $end
$var reg 1 6& readaccess $end
$var reg 32 7& readdata [31:0] $end
$var reg 1 8& writeaccess $end
$var integer 32 9& i [31:0] $end
$upscope $end
$scope module my_mux_1 $end
$var wire 8 :& IN0 [7:0] $end
$var wire 1 U control $end
$var wire 8 ;& IN1 [7:0] $end
$var reg 8 <& out [7:0] $end
$upscope $end
$scope module my_mux_2 $end
$var wire 8 =& IN0 [7:0] $end
$var wire 8 >& IN1 [7:0] $end
$var wire 1 T control $end
$var reg 8 ?& out [7:0] $end
$upscope $end
$scope module my_reg_file $end
$var wire 1 ) CLK $end
$var wire 3 @& INADDRESS [2:0] $end
$var wire 3 A& OUT1ADDRESS [2:0] $end
$var wire 3 B& OUT2ADDRESS [2:0] $end
$var wire 1 * RESET $end
$var wire 1 K WRITE $end
$var wire 8 C& IN [7:0] $end
$var reg 8 D& OUT1 [7:0] $end
$var reg 8 E& OUT2 [7:0] $end
$var integer 32 F& i [31:0] $end
$upscope $end
$scope module reg_mux $end
$var wire 8 G& IN0 [7:0] $end
$var wire 8 H& IN1 [7:0] $end
$var wire 1 > control $end
$var reg 8 I& out [7:0] $end
$upscope $end
$upscope $end
$upscope $end
$scope module cpu_tb $end
$scope module mycpu $end
$scope module my_reg_file $end
$var reg 8 J& \regfiles[0] [7:0] $end
$upscope $end
$upscope $end
$upscope $end
$scope module cpu_tb $end
$scope module mycpu $end
$scope module my_reg_file $end
$var reg 8 K& \regfiles[1] [7:0] $end
$upscope $end
$upscope $end
$upscope $end
$scope module cpu_tb $end
$scope module mycpu $end
$scope module my_reg_file $end
$var reg 8 L& \regfiles[2] [7:0] $end
$upscope $end
$upscope $end
$upscope $end
$scope module cpu_tb $end
$scope module mycpu $end
$scope module my_reg_file $end
$var reg 8 M& \regfiles[3] [7:0] $end
$upscope $end
$upscope $end
$upscope $end
$scope module cpu_tb $end
$scope module mycpu $end
$scope module my_reg_file $end
$var reg 8 N& \regfiles[4] [7:0] $end
$upscope $end
$upscope $end
$upscope $end
$scope module cpu_tb $end
$scope module mycpu $end
$scope module my_reg_file $end
$var reg 8 O& \regfiles[5] [7:0] $end
$upscope $end
$upscope $end
$upscope $end
$scope module cpu_tb $end
$scope module mycpu $end
$scope module my_reg_file $end
$var reg 8 P& \regfiles[6] [7:0] $end
$upscope $end
$upscope $end
$upscope $end
$scope module cpu_tb $end
$scope module mycpu $end
$scope module my_reg_file $end
$var reg 8 Q& \regfiles[7] [7:0] $end
$upscope $end
$upscope $end
$upscope $end
$enddefinitions $end
#0
$dumpvars
bx Q&
bx P&
bx O&
bx N&
bx M&
bx L&
bx K&
bx J&
bx I&
bx H&
bx G&
bx F&
bx E&
bx D&
bx C&
bx B&
bx A&
bx @&
bx ?&
bx >&
bx =&
bx <&
bx ;&
bx :&
b100000000 9&
08&
bx 7&
06&
bx 5&
bx 4&
bx 3&
bx 2&
bx 1&
bx 0&
bx /&
bx .&
bx -&
bx ,&
bx +&
bx *&
b0xxxxxxxx )&
bx (&
b111 '&
b0 &&
b0 %&
bx $&
bx #&
bx "&
x!&
bx ~%
bx }%
bx |%
bx {%
bx z%
xy%
xx%
xw%
xv%
bx u%
xt%
bx s%
xr%
xq%
xp%
xo%
xn%
xm%
xl%
xk%
xj%
bx i%
xh%
xg%
xf%
xe%
xd%
xc%
xb%
xa%
x`%
bx _%
x^%
x]%
x\%
x[%
xZ%
xY%
xX%
xW%
xV%
bx U%
xT%
xS%
xR%
xQ%
xP%
xO%
xN%
xM%
xL%
bx K%
xJ%
xI%
xH%
xG%
xF%
xE%
xD%
xC%
xB%
bx A%
x@%
x?%
x>%
x=%
x<%
x;%
x:%
x9%
x8%
bx 7%
x6%
x5%
x4%
x3%
x2%
x1%
x0%
x/%
x.%
bx -%
x,%
x+%
x*%
x)%
x(%
x'%
x&%
x%%
x$%
bx #%
x"%
x!%
x~$
x}$
x|$
x{$
xz$
xy$
xx$
bx w$
xv$
xu$
xt$
xs$
xr$
xq$
xp$
xo$
xn$
bx m$
xl$
xk$
xj$
xi$
xh$
xg$
xf$
xe$
xd$
bx c$
xb$
xa$
x`$
x_$
x^$
x]$
x\$
x[$
xZ$
bx Y$
xX$
xW$
xV$
xU$
xT$
xS$
xR$
xQ$
xP$
bx O$
xN$
xM$
xL$
xK$
xJ$
xI$
xH$
xG$
xF$
bx E$
xD$
xC$
xB$
xA$
x@$
x?$
x>$
x=$
x<$
bx ;$
x:$
x9$
x8$
x7$
x6$
x5$
x4$
x3$
x2$
x1$
00$
x/$
x.$
0-$
x,$
x+$
x*$
x)$
x($
x'$
1&$
x%$
x$$
x#$
x"$
x!$
x~#
1}#
x|#
x{#
xz#
xy#
0x#
xw#
0v#
1u#
xt#
bx s#
b111 r#
bx q#
xp#
xo#
0n#
xm#
xl#
0k#
xj#
xi#
xh#
xg#
xf#
xe#
1d#
xc#
xb#
xa#
x`#
0_#
x^#
1]#
x\#
x[#
0Z#
0Y#
0X#
xW#
0V#
0U#
xT#
bx S#
b110 R#
bx Q#
xP#
xO#
0N#
xM#
xL#
0K#
xJ#
xI#
xH#
xG#
xF#
xE#
1D#
xC#
xB#
xA#
0@#
x?#
x>#
0=#
x<#
x;#
x:#
x9#
08#
x7#
06#
15#
x4#
bx 3#
b101 2#
bx 1#
x0#
x/#
0.#
x-#
x,#
0+#
x*#
x)#
x(#
x'#
0&#
x%#
1$#
x##
x"#
0!#
0~"
0}"
x|"
0{"
xz"
xy"
0x"
0w"
0v"
xu"
0t"
0s"
xr"
bx q"
b100 p"
bx o"
xn"
xm"
0l"
xk"
xj"
0i"
xh"
xg"
xf"
0e"
xd"
xc"
0b"
xa"
x`"
x_"
x^"
x]"
x\"
1["
xZ"
xY"
xX"
xW"
0V"
xU"
0T"
1S"
xR"
bx Q"
b11 P"
bx O"
xN"
xM"
0L"
xK"
xJ"
0I"
xH"
xG"
xF"
0E"
xD"
xC"
0B"
xA"
x@"
x?"
x>"
0="
x<"
1;"
x:"
x9"
08"
07"
06"
x5"
04"
03"
x2"
bx 1"
b10 0"
bx /"
x."
x-"
0,"
x+"
x*"
0)"
x("
x'"
x&"
0%"
x$"
x#"
0""
x!"
x~
x}
0|
x{
xz
0y
xx
xw
xv
xu
0t
xs
0r
1q
xp
bx o
b1 n
bx m
b1000 l
b0 k
bx j
bx i
bx h
bx g
bx f
bx e
bx d
bx c
bx b
bx a
b0xxxxxxxx `
b0xxxxxxxx _
x^
b0xxxxxxxx00 ]
bx \
bx [
bx Z
bx Y
bx X
bx W
xV
xU
xT
bx S
bx R
bx Q
bx P
bx O
bx N
bx M
bx L
xK
xJ
xI
bx H
0G
0F
bx E
0D
bx C
b0xxxxxxxx B
bx A
x@
bx ?
x>
x=
bx <
b111 ;
b0 :
b0 9
bx 8
bx 7
bx 6
bx 5
bx 4
x3
x2
bx 1
x0
bx /
bx .
0-
bx ,
b1000 +
1*
0)
bx (
bx '
x&
x%
0$
bx #
0"
bx !
$end
#40
1%
1&
b0 Q&
b0 P&
b0 O&
b0 N&
b0 M&
b0 L&
b0 K&
b0 J&
b1000 F&
b111 '&
b111 ;
1)
#50
b0 5
b0 6
b0 4
b0 /
b0 '
b0 [
0*
#60
1-
1$
b0 #
b0 ,
b0 8
1"
b1 9
00
02
#80
0)
#120
b1 :
1)
#160
0)
#200
1)
#240
0)
#280
1)
#320
0)
#360
1)
#400
0)
#440
1)
#480
0)
#520
1)
bx00000101 !
bx00000101 .
bx00000101 1
#560
0)
#600
1)
#640
0)
#680
1)
#720
0)
#760
1)
#800
0)
#840
1)
#880
0)
#920
1)
bx0000000000000101 !
bx0000000000000101 .
bx0000000000000101 1
#960
0)
#1000
1)
#1040
0)
#1080
1)
#1120
0)
#1160
1)
#1200
0)
#1240
1)
#1280
0)
#1320
1)
bx000000000000000000000101 !
bx000000000000000000000101 .
bx000000000000000000000101 1
#1360
0)
#1400
1)
#1440
0)
#1480
1)
#1520
0)
#1560
1)
#1600
0)
#1640
1)
#1680
0)
#1720
1)
bx00000000000000000000000000000101 !
bx00000000000000000000000000000101 .
bx00000000000000000000000000000101 1
#1760
0)
#1800
1)
#1840
0)
#1880
1)
#1920
0)
#1960
1)
#2000
0)
#2040
1)
#2080
0)
#2120
1)
bx0000100100000000000000000000000000000101 !
bx0000100100000000000000000000000000000101 .
bx0000100100000000000000000000000000000101 1
#2160
0)
#2200
1)
#2240
0)
#2280
1)
#2320
0)
#2360
1)
#2400
0)
#2440
1)
#2480
0)
#2520
1)
bx000000000000100100000000000000000000000000000101 !
bx000000000000100100000000000000000000000000000101 .
bx000000000000100100000000000000000000000000000101 1
#2560
0)
#2600
1)
#2640
0)
#2680
1)
#2720
0)
#2760
1)
#2800
0)
#2840
1)
#2880
0)
#2920
1)
bx00000001000000000000100100000000000000000000000000000101 !
bx00000001000000000000100100000000000000000000000000000101 .
bx00000001000000000000100100000000000000000000000000000101 1
#2960
0)
#3000
1)
#3040
0)
#3080
1)
#3120
0)
#3160
1)
#3200
0)
#3240
1)
#3280
0)
#3320
1)
bx0000000000000001000000000000100100000000000000000000000000000101 !
bx0000000000000001000000000000100100000000000000000000000000000101 .
bx0000000000000001000000000000100100000000000000000000000000000101 1
#3360
0)
#3400
1)
#3440
0)
#3480
1)
#3520
0)
#3560
1)
#3600
0)
#3640
1)
#3680
0)
#3720
1)
bx000000010000000000000001000000000000100100000000000000000000000000000101 !
bx000000010000000000000001000000000000100100000000000000000000000000000101 .
bx000000010000000000000001000000000000100100000000000000000000000000000101 1
#3760
0)
#3800
1)
#3840
0)
#3880
1)
#3920
0)
#3960
1)
#4000
0)
#4040
1)
#4080
0)
